%TF.GenerationSoftware,KiCad,Pcbnew,8.0.0*%
%TF.CreationDate,2024-05-31T10:16:06+08:00*%
%TF.ProjectId,ecc83-pp,65636338-332d-4707-902e-6b696361645f,rev?*%
%TF.SameCoordinates,Original*%
%TF.FileFunction,Copper,L2,Bot*%
%TF.FilePolarity,Positive*%
%FSLAX46Y46*%
G04 Gerber Fmt 4.6, Leading zero omitted, Abs format (unit mm)*
G04 Created by KiCad (PCBNEW 8.0.0) date 2024-05-31 10:16:06*
%MOMM*%
%LPD*%
G01*
G04 APERTURE LIST*
%TA.AperFunction,ComponentPad*%
%ADD10R,2.000000X2.000000*%
%TD*%
%TA.AperFunction,ComponentPad*%
%ADD11C,2.000000*%
%TD*%
%TA.AperFunction,ComponentPad*%
%ADD12C,1.600000*%
%TD*%
%TA.AperFunction,ComponentPad*%
%ADD13C,5.600000*%
%TD*%
%TA.AperFunction,ComponentPad*%
%ADD14O,1.600000X1.600000*%
%TD*%
%TA.AperFunction,ComponentPad*%
%ADD15R,3.000000X3.000000*%
%TD*%
%TA.AperFunction,ComponentPad*%
%ADD16C,3.000000*%
%TD*%
%TA.AperFunction,ComponentPad*%
%ADD17C,2.030000*%
%TD*%
%TA.AperFunction,Conductor*%
%ADD18C,0.800000*%
%TD*%
G04 APERTURE END LIST*
D10*
%TO.P,C1,1*%
%TO.N,Net-(P3-P1)*%
X141605000Y-99695000D03*
D11*
%TO.P,C1,2*%
%TO.N,GND*%
X141605000Y-94695000D03*
%TD*%
D12*
%TO.P,C2,1*%
%TO.N,Net-(P2-P1)*%
X137160000Y-125095000D03*
%TO.P,C2,2*%
%TO.N,Net-(U1A-K)*%
X137160000Y-120095000D03*
%TD*%
D13*
%TO.P,P5,1,1*%
%TO.N,unconnected-(P5-Pad1)*%
X125095000Y-93980000D03*
%TD*%
%TO.P,P6,1,1*%
%TO.N,unconnected-(P6-Pad1)*%
X169545000Y-93980000D03*
%TD*%
%TO.P,P7,1,1*%
%TO.N,unconnected-(P7-Pad1)*%
X169545000Y-132715000D03*
%TD*%
D12*
%TO.P,R1,1*%
%TO.N,Net-(U1A-G)*%
X136271000Y-107950000D03*
D14*
%TO.P,R1,2*%
%TO.N,Net-(U1A-K)*%
X136271000Y-115570000D03*
%TD*%
D12*
%TO.P,R2,1*%
%TO.N,Net-(U1B-K)*%
X156210000Y-95885000D03*
D14*
%TO.P,R2,2*%
%TO.N,GND*%
X148590000Y-95885000D03*
%TD*%
D12*
%TO.P,R4,1*%
%TO.N,Net-(P1-PM)*%
X164465000Y-117475000D03*
D14*
%TO.P,R4,2*%
%TO.N,GND*%
X164465000Y-125095000D03*
%TD*%
D15*
%TO.P,P2,1,P1*%
%TO.N,Net-(P2-P1)*%
X128270000Y-112776000D03*
D16*
%TO.P,P2,2,PM*%
%TO.N,GND*%
X128270000Y-117776000D03*
%TD*%
D15*
%TO.P,P3,1,P1*%
%TO.N,Net-(P3-P1)*%
X128270000Y-100711000D03*
D16*
%TO.P,P3,2,PM*%
%TO.N,GND*%
X128270000Y-105711000D03*
%TD*%
D15*
%TO.P,P4,1,P1*%
%TO.N,Net-(P4-P1)*%
X145542000Y-131191000D03*
D16*
%TO.P,P4,2,PM*%
%TO.N,Net-(P4-PM)*%
X150542000Y-131191000D03*
%TD*%
D12*
%TO.P,R3,1*%
%TO.N,Net-(P2-P1)*%
X133985000Y-125095000D03*
D14*
%TO.P,R3,2*%
%TO.N,GND*%
X126365000Y-125095000D03*
%TD*%
D17*
%TO.P,U1,1,A*%
%TO.N,Net-(U1A-G)*%
X152675000Y-118465000D03*
%TO.P,U1,2,G*%
%TO.N,Net-(P1-PM)*%
X154825000Y-115535000D03*
%TO.P,U1,3,K*%
%TO.N,Net-(U1B-K)*%
X154825000Y-111885000D03*
%TO.P,U1,4,F1*%
%TO.N,Net-(P4-PM)*%
X152675000Y-108955000D03*
%TO.P,U1,5,F1*%
X149225000Y-107815000D03*
%TO.P,U1,6,A*%
%TO.N,Net-(P3-P1)*%
X145765000Y-108955000D03*
%TO.P,U1,7,G*%
%TO.N,Net-(U1A-G)*%
X143615000Y-111885000D03*
%TO.P,U1,8,K*%
%TO.N,Net-(U1A-K)*%
X143615000Y-115495000D03*
%TO.P,U1,9,F2*%
%TO.N,Net-(P4-P1)*%
X145765000Y-118465000D03*
%TD*%
D15*
%TO.P,P1,1,P1*%
%TO.N,GND*%
X166370000Y-105410000D03*
D16*
%TO.P,P1,2,PM*%
%TO.N,Net-(P1-PM)*%
X166370000Y-100410000D03*
%TD*%
D13*
%TO.P,P8,1,1*%
%TO.N,unconnected-(P8-Pad1)*%
X125095000Y-132715000D03*
%TD*%
D18*
%TO.N,Net-(P3-P1)*%
X139573000Y-99695000D02*
X141605000Y-99695000D01*
X139446000Y-99822000D02*
X139573000Y-99695000D01*
X144780000Y-99695000D02*
X141605000Y-99695000D01*
X139446000Y-99822000D02*
X129159000Y-99822000D01*
X145770600Y-100685600D02*
X144780000Y-99695000D01*
X145770600Y-108910120D02*
X145770600Y-100685600D01*
X129159000Y-99822000D02*
X128270000Y-100711000D01*
%TO.N,Net-(P2-P1)*%
X133858000Y-123825000D02*
X133858000Y-122837172D01*
X133858000Y-124968000D02*
X133858000Y-123825000D01*
X133858000Y-122837172D02*
X132080000Y-121059172D01*
X133985000Y-125095000D02*
X133858000Y-124968000D01*
X132080000Y-114422400D02*
X130433600Y-112776000D01*
X132080000Y-121059172D02*
X132080000Y-114422400D01*
X130433600Y-112776000D02*
X128270000Y-112776000D01*
X137160000Y-125095000D02*
X133985000Y-125095000D01*
%TO.N,Net-(U1A-K)*%
X136271000Y-115570000D02*
X137160000Y-115570000D01*
X137160000Y-120015000D02*
X137160000Y-115570000D01*
X137160000Y-115570000D02*
X143499840Y-115570000D01*
X143499840Y-115570000D02*
X143616680Y-115453160D01*
%TO.N,Net-(P1-PM)*%
X161417000Y-106506000D02*
X161417000Y-111480600D01*
X157403800Y-115493800D02*
X159385000Y-117475000D01*
X161417000Y-111480600D02*
X157403800Y-115493800D01*
X164592000Y-100283000D02*
X163292001Y-101582999D01*
X162450001Y-101582999D02*
X161417000Y-102616000D01*
X154833320Y-115493800D02*
X157403800Y-115493800D01*
X159385000Y-117475000D02*
X164465000Y-117475000D01*
X161417000Y-102616000D02*
X161417000Y-106506000D01*
X163292001Y-101582999D02*
X162450001Y-101582999D01*
%TO.N,Net-(P4-P1)*%
X145770600Y-127298923D02*
X145770600Y-126492000D01*
X145770600Y-118419880D02*
X145770600Y-124587000D01*
X145368000Y-129540000D02*
X145368000Y-127701523D01*
X145368000Y-127701523D02*
X145770600Y-127298923D01*
X145770600Y-124587000D02*
X145770600Y-126492000D01*
%TO.N,Net-(P4-PM)*%
X149225000Y-110490000D02*
X149500000Y-110765000D01*
X149500000Y-110765000D02*
X149500000Y-124481000D01*
X149500000Y-124481000D02*
X150542000Y-125523000D01*
X150542000Y-125523000D02*
X150542000Y-131191000D01*
X152679400Y-108910120D02*
X151541480Y-107772200D01*
X151541480Y-107772200D02*
X149225000Y-107772200D01*
X149225000Y-107772200D02*
X149225000Y-110490000D01*
%TO.N,Net-(U1A-G)*%
X136525000Y-121920000D02*
X139065000Y-124460000D01*
X133985000Y-109220000D02*
X133985000Y-116205000D01*
X152250834Y-134055312D02*
X154940000Y-131366146D01*
X135890000Y-107950000D02*
X135255000Y-107950000D01*
X135509000Y-117729000D02*
X135509000Y-121031000D01*
X154940000Y-120680480D02*
X152679400Y-118419880D01*
X136398000Y-121920000D02*
X136525000Y-121920000D01*
X143616680Y-111836200D02*
X141681200Y-111836200D01*
X135255000Y-107950000D02*
X133985000Y-109220000D01*
X135890000Y-107950000D02*
X137795000Y-107950000D01*
X139065000Y-124460000D02*
X139065000Y-132240853D01*
X139065000Y-132240853D02*
X140879459Y-134055312D01*
X154940000Y-131366146D02*
X154940000Y-120680480D01*
X135509000Y-121031000D02*
X136398000Y-121920000D01*
X140879459Y-134055312D02*
X152250834Y-134055312D01*
X133985000Y-116205000D02*
X135509000Y-117729000D01*
X141681200Y-111836200D02*
X137795000Y-107950000D01*
%TO.N,Net-(U1B-K)*%
X156210000Y-110500000D02*
X154825000Y-111885000D01*
X156210000Y-95885000D02*
X156210000Y-110500000D01*
%TD*%
%TA.AperFunction,Conductor*%
%TO.N,GND*%
G36*
X166963652Y-91344896D02*
G01*
X167029723Y-91397309D01*
X167066509Y-91473199D01*
X167066725Y-91557534D01*
X167030329Y-91633611D01*
X167026302Y-91638515D01*
X166974827Y-91699116D01*
X166806002Y-91897873D01*
X166596944Y-92206211D01*
X166422443Y-92535355D01*
X166284558Y-92881422D01*
X166284557Y-92881423D01*
X166284556Y-92881428D01*
X166184892Y-93240384D01*
X166124623Y-93608012D01*
X166104454Y-93980000D01*
X166124623Y-94351988D01*
X166184892Y-94719616D01*
X166223721Y-94859466D01*
X166284557Y-95078576D01*
X166284558Y-95078577D01*
X166419518Y-95417304D01*
X166422445Y-95424648D01*
X166596943Y-95753787D01*
X166650203Y-95832339D01*
X166790589Y-96039394D01*
X166806005Y-96062130D01*
X167047179Y-96346062D01*
X167047184Y-96346067D01*
X167047186Y-96346069D01*
X167317638Y-96602254D01*
X167317639Y-96602255D01*
X167614210Y-96827702D01*
X167614212Y-96827703D01*
X167933413Y-97019761D01*
X167933417Y-97019763D01*
X167933419Y-97019764D01*
X168271523Y-97176187D01*
X168624556Y-97295138D01*
X168988382Y-97375222D01*
X169358733Y-97415500D01*
X169358736Y-97415500D01*
X169731264Y-97415500D01*
X169731267Y-97415500D01*
X170101618Y-97375222D01*
X170465444Y-97295138D01*
X170818477Y-97176187D01*
X171156581Y-97019764D01*
X171475790Y-96827702D01*
X171772362Y-96602254D01*
X171772377Y-96602239D01*
X171772816Y-96601868D01*
X171772985Y-96601779D01*
X171776449Y-96599147D01*
X171776901Y-96599742D01*
X171847629Y-96562940D01*
X171931924Y-96560328D01*
X172009005Y-96594548D01*
X172063605Y-96658823D01*
X172084909Y-96740424D01*
X172085000Y-96746294D01*
X172085000Y-129948705D01*
X172066234Y-130030926D01*
X172013651Y-130096862D01*
X171937668Y-130133454D01*
X171853332Y-130133454D01*
X171777349Y-130096862D01*
X171772835Y-130093147D01*
X171772371Y-130092753D01*
X171772360Y-130092745D01*
X171475790Y-129867298D01*
X171475791Y-129867298D01*
X171475789Y-129867297D01*
X171475787Y-129867296D01*
X171156586Y-129675238D01*
X170818475Y-129518812D01*
X170818472Y-129518811D01*
X170465448Y-129399863D01*
X170465445Y-129399862D01*
X170297746Y-129362949D01*
X170101618Y-129319778D01*
X170101613Y-129319777D01*
X170101611Y-129319777D01*
X169731270Y-129279500D01*
X169731267Y-129279500D01*
X169358733Y-129279500D01*
X169358729Y-129279500D01*
X168988388Y-129319777D01*
X168988384Y-129319777D01*
X168988382Y-129319778D01*
X168835048Y-129353529D01*
X168624554Y-129399862D01*
X168624551Y-129399863D01*
X168271527Y-129518811D01*
X168271524Y-129518812D01*
X167933413Y-129675238D01*
X167614212Y-129867296D01*
X167614210Y-129867297D01*
X167317639Y-130092744D01*
X167317638Y-130092745D01*
X167047186Y-130348930D01*
X166806002Y-130632873D01*
X166596944Y-130941211D01*
X166422443Y-131270355D01*
X166284558Y-131616422D01*
X166284557Y-131616423D01*
X166217861Y-131856641D01*
X166184892Y-131975384D01*
X166124623Y-132343012D01*
X166104454Y-132715000D01*
X166120949Y-133019235D01*
X166124623Y-133086985D01*
X166184892Y-133454615D01*
X166284557Y-133813576D01*
X166422445Y-134159648D01*
X166596943Y-134488787D01*
X166806005Y-134797130D01*
X167047179Y-135081062D01*
X167317638Y-135337254D01*
X167597029Y-135549641D01*
X167651126Y-135614338D01*
X167671796Y-135696101D01*
X167654943Y-135778736D01*
X167603905Y-135845875D01*
X167528792Y-135884220D01*
X167482347Y-135890000D01*
X127157653Y-135890000D01*
X127075432Y-135871234D01*
X127009496Y-135818651D01*
X126972904Y-135742668D01*
X126972904Y-135658332D01*
X127009496Y-135582349D01*
X127042969Y-135549642D01*
X127322362Y-135337254D01*
X127592821Y-135081062D01*
X127833995Y-134797130D01*
X128043057Y-134488787D01*
X128217555Y-134159648D01*
X128355444Y-133813572D01*
X128455108Y-133454616D01*
X128515377Y-133086988D01*
X128535546Y-132715000D01*
X128515377Y-132343012D01*
X128455108Y-131975384D01*
X128355444Y-131616428D01*
X128217555Y-131270352D01*
X128043057Y-130941213D01*
X127833995Y-130632870D01*
X127592821Y-130348938D01*
X127581512Y-130338226D01*
X127322361Y-130092745D01*
X127322360Y-130092744D01*
X127025789Y-129867297D01*
X127025787Y-129867296D01*
X126706586Y-129675238D01*
X126368475Y-129518812D01*
X126368472Y-129518811D01*
X126015448Y-129399863D01*
X126015445Y-129399862D01*
X125847746Y-129362949D01*
X125651618Y-129319778D01*
X125651613Y-129319777D01*
X125651611Y-129319777D01*
X125281270Y-129279500D01*
X125281267Y-129279500D01*
X124908733Y-129279500D01*
X124908729Y-129279500D01*
X124538388Y-129319777D01*
X124538384Y-129319777D01*
X124538382Y-129319778D01*
X124385048Y-129353529D01*
X124174554Y-129399862D01*
X124174551Y-129399863D01*
X123821527Y-129518811D01*
X123821524Y-129518812D01*
X123483413Y-129675238D01*
X123164212Y-129867296D01*
X123164210Y-129867297D01*
X122867628Y-130092753D01*
X122867165Y-130093147D01*
X122866992Y-130093236D01*
X122863551Y-130095853D01*
X122863100Y-130095260D01*
X122792346Y-130132065D01*
X122708051Y-130134667D01*
X122630975Y-130100436D01*
X122576384Y-130036153D01*
X122555090Y-129954550D01*
X122555000Y-129948705D01*
X122555000Y-125345190D01*
X125339466Y-125345190D01*
X125386514Y-125500288D01*
X125386519Y-125500300D01*
X125484392Y-125683404D01*
X125484395Y-125683410D01*
X125616100Y-125843894D01*
X125616105Y-125843899D01*
X125776589Y-125975604D01*
X125776595Y-125975607D01*
X125959699Y-126073480D01*
X125959711Y-126073485D01*
X126114809Y-126120533D01*
X126114810Y-126120532D01*
X126114810Y-125410496D01*
X126119394Y-125415080D01*
X126210606Y-125467741D01*
X126312339Y-125495000D01*
X126417661Y-125495000D01*
X126519394Y-125467741D01*
X126610606Y-125415080D01*
X126615190Y-125410496D01*
X126615190Y-126120533D01*
X126770288Y-126073485D01*
X126770300Y-126073480D01*
X126953404Y-125975607D01*
X126953410Y-125975604D01*
X127113894Y-125843899D01*
X127113899Y-125843894D01*
X127245604Y-125683410D01*
X127245607Y-125683404D01*
X127343480Y-125500300D01*
X127343485Y-125500288D01*
X127390533Y-125345190D01*
X126680496Y-125345190D01*
X126685080Y-125340606D01*
X126737741Y-125249394D01*
X126765000Y-125147661D01*
X126765000Y-125042339D01*
X126737741Y-124940606D01*
X126685080Y-124849394D01*
X126680496Y-124844810D01*
X127390533Y-124844810D01*
X127390533Y-124844809D01*
X127343485Y-124689711D01*
X127343480Y-124689699D01*
X127245607Y-124506595D01*
X127245604Y-124506589D01*
X127113899Y-124346105D01*
X127113894Y-124346100D01*
X126953410Y-124214395D01*
X126953404Y-124214392D01*
X126770302Y-124116520D01*
X126615190Y-124069466D01*
X126615190Y-124779504D01*
X126610606Y-124774920D01*
X126519394Y-124722259D01*
X126417661Y-124695000D01*
X126312339Y-124695000D01*
X126210606Y-124722259D01*
X126119394Y-124774920D01*
X126114810Y-124779504D01*
X126114810Y-124069466D01*
X125959697Y-124116520D01*
X125776595Y-124214392D01*
X125776589Y-124214395D01*
X125616105Y-124346100D01*
X125616100Y-124346105D01*
X125484395Y-124506589D01*
X125484392Y-124506595D01*
X125386519Y-124689699D01*
X125386514Y-124689711D01*
X125339466Y-124844809D01*
X125339467Y-124844810D01*
X126049504Y-124844810D01*
X126044920Y-124849394D01*
X125992259Y-124940606D01*
X125965000Y-125042339D01*
X125965000Y-125147661D01*
X125992259Y-125249394D01*
X126044920Y-125340606D01*
X126049504Y-125345190D01*
X125339466Y-125345190D01*
X122555000Y-125345190D01*
X122555000Y-117776001D01*
X126511082Y-117776001D01*
X126530728Y-118038152D01*
X126530728Y-118038157D01*
X126589226Y-118294450D01*
X126685269Y-118539164D01*
X126816715Y-118766835D01*
X126864908Y-118827267D01*
X127592342Y-118099833D01*
X127605359Y-118131258D01*
X127687437Y-118254097D01*
X127791903Y-118358563D01*
X127914742Y-118440641D01*
X127946164Y-118453656D01*
X127218113Y-119181707D01*
X127390540Y-119299267D01*
X127390545Y-119299270D01*
X127627395Y-119413330D01*
X127878610Y-119490819D01*
X128138549Y-119529999D01*
X128138560Y-119530000D01*
X128401440Y-119530000D01*
X128401450Y-119529999D01*
X128661389Y-119490819D01*
X128912604Y-119413330D01*
X129149454Y-119299270D01*
X129149459Y-119299267D01*
X129321885Y-119181708D01*
X128593834Y-118453657D01*
X128625258Y-118440641D01*
X128748097Y-118358563D01*
X128852563Y-118254097D01*
X128934641Y-118131258D01*
X128947657Y-118099834D01*
X129675089Y-118827266D01*
X129723284Y-118766835D01*
X129854730Y-118539164D01*
X129950773Y-118294450D01*
X130009271Y-118038157D01*
X130009271Y-118038152D01*
X130028918Y-117776001D01*
X130028918Y-117775998D01*
X130009271Y-117513847D01*
X130009271Y-117513842D01*
X129950773Y-117257549D01*
X129854730Y-117012835D01*
X129723285Y-116785166D01*
X129723284Y-116785164D01*
X129675090Y-116724731D01*
X128947656Y-117452164D01*
X128934641Y-117420742D01*
X128852563Y-117297903D01*
X128748097Y-117193437D01*
X128625258Y-117111359D01*
X128593834Y-117098342D01*
X129321886Y-116370290D01*
X129149464Y-116252735D01*
X129149450Y-116252727D01*
X128912610Y-116138670D01*
X128661389Y-116061180D01*
X128401450Y-116022000D01*
X128138549Y-116022000D01*
X127878610Y-116061180D01*
X127627389Y-116138670D01*
X127390544Y-116252730D01*
X127390537Y-116252734D01*
X127218112Y-116370290D01*
X127946165Y-117098342D01*
X127914742Y-117111359D01*
X127791903Y-117193437D01*
X127687437Y-117297903D01*
X127605359Y-117420742D01*
X127592342Y-117452165D01*
X126864908Y-116724731D01*
X126816714Y-116785165D01*
X126816713Y-116785167D01*
X126685269Y-117012835D01*
X126589226Y-117257549D01*
X126530728Y-117513842D01*
X126530728Y-117513847D01*
X126511082Y-117775998D01*
X126511082Y-117776001D01*
X122555000Y-117776001D01*
X122555000Y-114340178D01*
X126134500Y-114340178D01*
X126134501Y-114340190D01*
X126137333Y-114376197D01*
X126137334Y-114376203D01*
X126137335Y-114376204D01*
X126182131Y-114530393D01*
X126263865Y-114668598D01*
X126377402Y-114782135D01*
X126377404Y-114782136D01*
X126377403Y-114782136D01*
X126466413Y-114834776D01*
X126515607Y-114863869D01*
X126669796Y-114908665D01*
X126705819Y-114911500D01*
X129834180Y-114911499D01*
X129845781Y-114910586D01*
X129870197Y-114908666D01*
X129870199Y-114908665D01*
X129870204Y-114908665D01*
X130024393Y-114863869D01*
X130162598Y-114782135D01*
X130276135Y-114668598D01*
X130357869Y-114530393D01*
X130357868Y-114530393D01*
X130363938Y-114520131D01*
X130365094Y-114520815D01*
X130407445Y-114463058D01*
X130481885Y-114423420D01*
X130566151Y-114420005D01*
X130643554Y-114453491D01*
X130665495Y-114472313D01*
X130988997Y-114795815D01*
X131033866Y-114867224D01*
X131044500Y-114929812D01*
X131044500Y-121161158D01*
X131084294Y-121361218D01*
X131162350Y-121549662D01*
X131162352Y-121549667D01*
X131275675Y-121719265D01*
X132766997Y-123210587D01*
X132811866Y-123281996D01*
X132822500Y-123344584D01*
X132822500Y-124193358D01*
X132803734Y-124275579D01*
X132791645Y-124297000D01*
X132759564Y-124346105D01*
X132718186Y-124409439D01*
X132622628Y-124627289D01*
X132622623Y-124627304D01*
X132564225Y-124857913D01*
X132564224Y-124857920D01*
X132544580Y-125095000D01*
X132564224Y-125332079D01*
X132564225Y-125332086D01*
X132622623Y-125562695D01*
X132622628Y-125562710D01*
X132718185Y-125780560D01*
X132718188Y-125780564D01*
X132848306Y-125979724D01*
X132848308Y-125979726D01*
X132848310Y-125979729D01*
X133009424Y-126154745D01*
X133009430Y-126154751D01*
X133115499Y-126237308D01*
X133197166Y-126300872D01*
X133406386Y-126414096D01*
X133406390Y-126414098D01*
X133631398Y-126491344D01*
X133866046Y-126530499D01*
X133866047Y-126530500D01*
X133866051Y-126530500D01*
X134103953Y-126530500D01*
X134103953Y-126530499D01*
X134338602Y-126491344D01*
X134563610Y-126414098D01*
X134772835Y-126300871D01*
X134940390Y-126170458D01*
X135016800Y-126134766D01*
X135056783Y-126130500D01*
X136088217Y-126130500D01*
X136170438Y-126149266D01*
X136204610Y-126170458D01*
X136372165Y-126300871D01*
X136581390Y-126414098D01*
X136806398Y-126491344D01*
X137041046Y-126530499D01*
X137041047Y-126530500D01*
X137041051Y-126530500D01*
X137278953Y-126530500D01*
X137278953Y-126530499D01*
X137513602Y-126491344D01*
X137738610Y-126414098D01*
X137749805Y-126408039D01*
X137831046Y-126385410D01*
X137914062Y-126400270D01*
X137982409Y-126449678D01*
X138022550Y-126523848D01*
X138029500Y-126574698D01*
X138029500Y-132342839D01*
X138069294Y-132542899D01*
X138147350Y-132731343D01*
X138147352Y-132731348D01*
X138260675Y-132900946D01*
X140219365Y-134859636D01*
X140388963Y-134972959D01*
X140388968Y-134972961D01*
X140577413Y-135051018D01*
X140777471Y-135090812D01*
X152352822Y-135090812D01*
X152552879Y-135051018D01*
X152671713Y-135001794D01*
X152741327Y-134972960D01*
X152741327Y-134972959D01*
X152741329Y-134972959D01*
X152784016Y-134944436D01*
X152910927Y-134859637D01*
X153055159Y-134715405D01*
X155744325Y-132026239D01*
X155841945Y-131880140D01*
X155857647Y-131856641D01*
X155857649Y-131856636D01*
X155894158Y-131768497D01*
X155935706Y-131668190D01*
X155972650Y-131482463D01*
X155975500Y-131468134D01*
X155975500Y-125345190D01*
X163439466Y-125345190D01*
X163486514Y-125500288D01*
X163486519Y-125500300D01*
X163584392Y-125683404D01*
X163584395Y-125683410D01*
X163716100Y-125843894D01*
X163716105Y-125843899D01*
X163876589Y-125975604D01*
X163876595Y-125975607D01*
X164059699Y-126073480D01*
X164059711Y-126073485D01*
X164214809Y-126120533D01*
X164214810Y-126120532D01*
X164214810Y-125410496D01*
X164219394Y-125415080D01*
X164310606Y-125467741D01*
X164412339Y-125495000D01*
X164517661Y-125495000D01*
X164619394Y-125467741D01*
X164710606Y-125415080D01*
X164715190Y-125410496D01*
X164715190Y-126120533D01*
X164870288Y-126073485D01*
X164870300Y-126073480D01*
X165053404Y-125975607D01*
X165053410Y-125975604D01*
X165213894Y-125843899D01*
X165213899Y-125843894D01*
X165345604Y-125683410D01*
X165345607Y-125683404D01*
X165443480Y-125500300D01*
X165443485Y-125500288D01*
X165490533Y-125345190D01*
X164780496Y-125345190D01*
X164785080Y-125340606D01*
X164837741Y-125249394D01*
X164865000Y-125147661D01*
X164865000Y-125042339D01*
X164837741Y-124940606D01*
X164785080Y-124849394D01*
X164780496Y-124844810D01*
X165490533Y-124844810D01*
X165490533Y-124844809D01*
X165443485Y-124689711D01*
X165443480Y-124689699D01*
X165345607Y-124506595D01*
X165345604Y-124506589D01*
X165213899Y-124346105D01*
X165213894Y-124346100D01*
X165053410Y-124214395D01*
X165053404Y-124214392D01*
X164870302Y-124116520D01*
X164715190Y-124069466D01*
X164715190Y-124779504D01*
X164710606Y-124774920D01*
X164619394Y-124722259D01*
X164517661Y-124695000D01*
X164412339Y-124695000D01*
X164310606Y-124722259D01*
X164219394Y-124774920D01*
X164214810Y-124779504D01*
X164214810Y-124069466D01*
X164059697Y-124116520D01*
X163876595Y-124214392D01*
X163876589Y-124214395D01*
X163716105Y-124346100D01*
X163716100Y-124346105D01*
X163584395Y-124506589D01*
X163584392Y-124506595D01*
X163486519Y-124689699D01*
X163486514Y-124689711D01*
X163439466Y-124844809D01*
X163439467Y-124844810D01*
X164149504Y-124844810D01*
X164144920Y-124849394D01*
X164092259Y-124940606D01*
X164065000Y-125042339D01*
X164065000Y-125147661D01*
X164092259Y-125249394D01*
X164144920Y-125340606D01*
X164149504Y-125345190D01*
X163439466Y-125345190D01*
X155975500Y-125345190D01*
X155975500Y-120578492D01*
X155935706Y-120378436D01*
X155935706Y-120378434D01*
X155857649Y-120189989D01*
X155857647Y-120189984D01*
X155772462Y-120062497D01*
X155744325Y-120020387D01*
X155600093Y-119876155D01*
X154382041Y-118658103D01*
X154337172Y-118586694D01*
X154327122Y-118509237D01*
X154330604Y-118465000D01*
X154310221Y-118206006D01*
X154249573Y-117953390D01*
X154150154Y-117713372D01*
X154150151Y-117713367D01*
X154150149Y-117713363D01*
X154014417Y-117491868D01*
X154014416Y-117491867D01*
X154014412Y-117491860D01*
X153858117Y-117308862D01*
X153818989Y-117234153D01*
X153816151Y-117149866D01*
X153850165Y-117072694D01*
X153914294Y-117017922D01*
X153995837Y-116996399D01*
X154074729Y-117010716D01*
X154313390Y-117109573D01*
X154566006Y-117170221D01*
X154825000Y-117190604D01*
X155083994Y-117170221D01*
X155336610Y-117109573D01*
X155576628Y-117010154D01*
X155798140Y-116874412D01*
X155995689Y-116705689D01*
X156045948Y-116646843D01*
X156089605Y-116595729D01*
X156157274Y-116545396D01*
X156233701Y-116529300D01*
X156896388Y-116529300D01*
X156978609Y-116548066D01*
X157030384Y-116584802D01*
X157920581Y-117475000D01*
X158724909Y-118279328D01*
X158724910Y-118279329D01*
X158867865Y-118374847D01*
X158867866Y-118374847D01*
X158894507Y-118392648D01*
X158894509Y-118392649D01*
X159082954Y-118470706D01*
X159283012Y-118510500D01*
X159283013Y-118510500D01*
X159486987Y-118510500D01*
X163393217Y-118510500D01*
X163475438Y-118529266D01*
X163509610Y-118550458D01*
X163677165Y-118680871D01*
X163886390Y-118794098D01*
X164111398Y-118871344D01*
X164346046Y-118910499D01*
X164346047Y-118910500D01*
X164346051Y-118910500D01*
X164583953Y-118910500D01*
X164583953Y-118910499D01*
X164818602Y-118871344D01*
X165043610Y-118794098D01*
X165252835Y-118680871D01*
X165440570Y-118534751D01*
X165601694Y-118359724D01*
X165731812Y-118160564D01*
X165757319Y-118102415D01*
X165770036Y-118073420D01*
X165827374Y-117942704D01*
X165885775Y-117712085D01*
X165905420Y-117475000D01*
X165885775Y-117237915D01*
X165827374Y-117007296D01*
X165822594Y-116996399D01*
X165731814Y-116789439D01*
X165677097Y-116705689D01*
X165601694Y-116590276D01*
X165601690Y-116590271D01*
X165601689Y-116590270D01*
X165440575Y-116415254D01*
X165440573Y-116415252D01*
X165440570Y-116415249D01*
X165275313Y-116286624D01*
X165252833Y-116269127D01*
X165043613Y-116155903D01*
X164818612Y-116078659D01*
X164818606Y-116078657D01*
X164818602Y-116078656D01*
X164818598Y-116078655D01*
X164818593Y-116078654D01*
X164583954Y-116039500D01*
X164583949Y-116039500D01*
X164346051Y-116039500D01*
X164346046Y-116039500D01*
X164111406Y-116078654D01*
X164111387Y-116078659D01*
X163886386Y-116155903D01*
X163677166Y-116269128D01*
X163509610Y-116399542D01*
X163433200Y-116435234D01*
X163393217Y-116439500D01*
X159892413Y-116439500D01*
X159810192Y-116420734D01*
X159758416Y-116383997D01*
X159002215Y-115627796D01*
X158957346Y-115556387D01*
X158947904Y-115472582D01*
X158975758Y-115392979D01*
X159002215Y-115359802D01*
X159693422Y-114668595D01*
X162221326Y-112140693D01*
X162334648Y-111971093D01*
X162412706Y-111782644D01*
X162426875Y-111711415D01*
X162432598Y-111682646D01*
X162452499Y-111582592D01*
X162452500Y-111582588D01*
X162452500Y-106404012D01*
X162452500Y-105159809D01*
X164616000Y-105159809D01*
X164616001Y-105159810D01*
X165661838Y-105159810D01*
X165648822Y-105191233D01*
X165620000Y-105336131D01*
X165620000Y-105483869D01*
X165648822Y-105628767D01*
X165661838Y-105660190D01*
X164616002Y-105660190D01*
X164616001Y-105660191D01*
X164616001Y-106935011D01*
X164630738Y-107009107D01*
X164686874Y-107093121D01*
X164686878Y-107093125D01*
X164770893Y-107149263D01*
X164844978Y-107163999D01*
X166119810Y-107163999D01*
X166119810Y-106118162D01*
X166151233Y-106131178D01*
X166296131Y-106160000D01*
X166443869Y-106160000D01*
X166588767Y-106131178D01*
X166620190Y-106118162D01*
X166620190Y-107163998D01*
X166620191Y-107163999D01*
X167895012Y-107163999D01*
X167969107Y-107149261D01*
X168053121Y-107093125D01*
X168053125Y-107093121D01*
X168109263Y-107009106D01*
X168123999Y-106935021D01*
X168124000Y-106935011D01*
X168124000Y-105660191D01*
X168123999Y-105660190D01*
X167078162Y-105660190D01*
X167091178Y-105628767D01*
X167120000Y-105483869D01*
X167120000Y-105336131D01*
X167091178Y-105191233D01*
X167078162Y-105159810D01*
X168123998Y-105159810D01*
X168123999Y-105159809D01*
X168123999Y-103884988D01*
X168109261Y-103810892D01*
X168053125Y-103726878D01*
X168053121Y-103726874D01*
X167969106Y-103670736D01*
X167895021Y-103656000D01*
X166620191Y-103656000D01*
X166620190Y-103656001D01*
X166620190Y-104701837D01*
X166588767Y-104688822D01*
X166443869Y-104660000D01*
X166296131Y-104660000D01*
X166151233Y-104688822D01*
X166119810Y-104701837D01*
X166119810Y-103656000D01*
X164844988Y-103656000D01*
X164770892Y-103670738D01*
X164686878Y-103726874D01*
X164686874Y-103726878D01*
X164630736Y-103810893D01*
X164616000Y-103884978D01*
X164616000Y-105159809D01*
X162452500Y-105159809D01*
X162452500Y-103123412D01*
X162471266Y-103041191D01*
X162508003Y-102989415D01*
X162823416Y-102674002D01*
X162894825Y-102629133D01*
X162957413Y-102618499D01*
X163393989Y-102618499D01*
X163594046Y-102578705D01*
X163770244Y-102505721D01*
X163782494Y-102500647D01*
X163782494Y-102500646D01*
X163782496Y-102500646D01*
X163835255Y-102465393D01*
X163952094Y-102387324D01*
X164096326Y-102243092D01*
X164507674Y-101831742D01*
X164579083Y-101786873D01*
X164662888Y-101777430D01*
X164742491Y-101805285D01*
X164780165Y-101836396D01*
X164909002Y-101974347D01*
X164909007Y-101974351D01*
X164909011Y-101974355D01*
X165135617Y-102158713D01*
X165135620Y-102158715D01*
X165385221Y-102310501D01*
X165385226Y-102310504D01*
X165385235Y-102310509D01*
X165385243Y-102310512D01*
X165385246Y-102310514D01*
X165653176Y-102426893D01*
X165653189Y-102426898D01*
X165653194Y-102426900D01*
X165934504Y-102505720D01*
X166223928Y-102545500D01*
X166223936Y-102545500D01*
X166516064Y-102545500D01*
X166516072Y-102545500D01*
X166805496Y-102505720D01*
X167086806Y-102426900D01*
X167086815Y-102426895D01*
X167086823Y-102426893D01*
X167346829Y-102313956D01*
X167354765Y-102310509D01*
X167604378Y-102158716D01*
X167645198Y-102125507D01*
X167830988Y-101974355D01*
X167830987Y-101974355D01*
X167830998Y-101974347D01*
X168030402Y-101760837D01*
X168198876Y-101522164D01*
X168333282Y-101262774D01*
X168431115Y-100987497D01*
X168471074Y-100795204D01*
X168490551Y-100701476D01*
X168490552Y-100701466D01*
X168490553Y-100701463D01*
X168510490Y-100410000D01*
X168490553Y-100118537D01*
X168490551Y-100118531D01*
X168490551Y-100118523D01*
X168459501Y-99969105D01*
X168431115Y-99832503D01*
X168333282Y-99557226D01*
X168198876Y-99297836D01*
X168030402Y-99059163D01*
X167830998Y-98845653D01*
X167830992Y-98845648D01*
X167830988Y-98845644D01*
X167604382Y-98661286D01*
X167604379Y-98661284D01*
X167354778Y-98509498D01*
X167354753Y-98509485D01*
X167086823Y-98393106D01*
X167086810Y-98393101D01*
X167033932Y-98378285D01*
X166805496Y-98314280D01*
X166805492Y-98314279D01*
X166805487Y-98314278D01*
X166516073Y-98274500D01*
X166516072Y-98274500D01*
X166223928Y-98274500D01*
X166223926Y-98274500D01*
X165934512Y-98314278D01*
X165934505Y-98314279D01*
X165934504Y-98314280D01*
X165828757Y-98343909D01*
X165653189Y-98393101D01*
X165653176Y-98393106D01*
X165385246Y-98509485D01*
X165385221Y-98509498D01*
X165135620Y-98661284D01*
X165135617Y-98661286D01*
X164909011Y-98845644D01*
X164909003Y-98845652D01*
X164709593Y-99059168D01*
X164633111Y-99167518D01*
X164570364Y-99223867D01*
X164496882Y-99246822D01*
X164490021Y-99247498D01*
X164289954Y-99287293D01*
X164101509Y-99365350D01*
X164101504Y-99365352D01*
X163931906Y-99478675D01*
X162918586Y-100491996D01*
X162847177Y-100536865D01*
X162784589Y-100547499D01*
X162348013Y-100547499D01*
X162159261Y-100585044D01*
X162147953Y-100587293D01*
X162147952Y-100587294D01*
X161959510Y-100665349D01*
X161959505Y-100665351D01*
X161789907Y-100778674D01*
X160612675Y-101955906D01*
X160499352Y-102125504D01*
X160499350Y-102125509D01*
X160421293Y-102313954D01*
X160381500Y-102514012D01*
X160381500Y-110973187D01*
X160362734Y-111055408D01*
X160325997Y-111107184D01*
X157030385Y-114402797D01*
X156958976Y-114447666D01*
X156896388Y-114458300D01*
X156163324Y-114458300D01*
X156081103Y-114439534D01*
X156019226Y-114391869D01*
X155995694Y-114364316D01*
X155995691Y-114364313D01*
X155995689Y-114364311D01*
X155798140Y-114195588D01*
X155798138Y-114195586D01*
X155798136Y-114195585D01*
X155798131Y-114195582D01*
X155576636Y-114059850D01*
X155576624Y-114059844D01*
X155336609Y-113960426D01*
X155083991Y-113899778D01*
X155083992Y-113899778D01*
X155073030Y-113898916D01*
X154992535Y-113873757D01*
X154930927Y-113816164D01*
X154900409Y-113737543D01*
X154907026Y-113653468D01*
X154949466Y-113580589D01*
X155019324Y-113533342D01*
X155073030Y-113521084D01*
X155076842Y-113520783D01*
X155083994Y-113520221D01*
X155336610Y-113459573D01*
X155576628Y-113360154D01*
X155798140Y-113224412D01*
X155995689Y-113055689D01*
X156164412Y-112858140D01*
X156300154Y-112636628D01*
X156399573Y-112396610D01*
X156460221Y-112143994D01*
X156480604Y-111885000D01*
X156473509Y-111794852D01*
X156485767Y-111711415D01*
X156528429Y-111645989D01*
X157014323Y-111160096D01*
X157014329Y-111160089D01*
X157049678Y-111107184D01*
X157127648Y-110990493D01*
X157205706Y-110802044D01*
X157245500Y-110601987D01*
X157245500Y-110398012D01*
X157245500Y-96953592D01*
X157264266Y-96871371D01*
X157295579Y-96825248D01*
X157346694Y-96769724D01*
X157476812Y-96570564D01*
X157572374Y-96352704D01*
X157630775Y-96122085D01*
X157650420Y-95885000D01*
X157630775Y-95647915D01*
X157572374Y-95417296D01*
X157519430Y-95296595D01*
X157476814Y-95199439D01*
X157451651Y-95160925D01*
X157346694Y-95000276D01*
X157346690Y-95000271D01*
X157346689Y-95000270D01*
X157185575Y-94825254D01*
X157185573Y-94825252D01*
X157185570Y-94825249D01*
X157049853Y-94719616D01*
X156997833Y-94679127D01*
X156788613Y-94565903D01*
X156563612Y-94488659D01*
X156563606Y-94488657D01*
X156563602Y-94488656D01*
X156563598Y-94488655D01*
X156563593Y-94488654D01*
X156328954Y-94449500D01*
X156328949Y-94449500D01*
X156091051Y-94449500D01*
X156091046Y-94449500D01*
X155856406Y-94488654D01*
X155856387Y-94488659D01*
X155631386Y-94565903D01*
X155422166Y-94679127D01*
X155234436Y-94825244D01*
X155234424Y-94825254D01*
X155073310Y-95000270D01*
X154943185Y-95199439D01*
X154847628Y-95417289D01*
X154847623Y-95417304D01*
X154789225Y-95647913D01*
X154789224Y-95647920D01*
X154769580Y-95885000D01*
X154789224Y-96122079D01*
X154789225Y-96122086D01*
X154847623Y-96352695D01*
X154847628Y-96352710D01*
X154943185Y-96570560D01*
X154984567Y-96633899D01*
X155073306Y-96769724D01*
X155124419Y-96825247D01*
X155166299Y-96898447D01*
X155174500Y-96953592D01*
X155174500Y-109992587D01*
X155155734Y-110074808D01*
X155118997Y-110126582D01*
X155064008Y-110181572D01*
X154992601Y-110226440D01*
X154915146Y-110236490D01*
X154825000Y-110229396D01*
X154566007Y-110249778D01*
X154313390Y-110310426D01*
X154074732Y-110409282D01*
X153991588Y-110423409D01*
X153910549Y-110400062D01*
X153847665Y-110343865D01*
X153815391Y-110265949D01*
X153820120Y-110181746D01*
X153858114Y-110111140D01*
X154014412Y-109928140D01*
X154150154Y-109706628D01*
X154249573Y-109466610D01*
X154310221Y-109213994D01*
X154330604Y-108955000D01*
X154310221Y-108696006D01*
X154249573Y-108443390D01*
X154150154Y-108203372D01*
X154150151Y-108203367D01*
X154150149Y-108203363D01*
X154014417Y-107981868D01*
X154014414Y-107981863D01*
X154014413Y-107981862D01*
X154014412Y-107981860D01*
X153845689Y-107784311D01*
X153648140Y-107615588D01*
X153648138Y-107615586D01*
X153648136Y-107615585D01*
X153648131Y-107615582D01*
X153426636Y-107479850D01*
X153426624Y-107479844D01*
X153186609Y-107380426D01*
X152933991Y-107319778D01*
X152933993Y-107319778D01*
X152695382Y-107301000D01*
X152675000Y-107299396D01*
X152674999Y-107299396D01*
X152630538Y-107302895D01*
X152547098Y-107290637D01*
X152481674Y-107247976D01*
X152201573Y-106967875D01*
X152031975Y-106854552D01*
X152031970Y-106854550D01*
X151843526Y-106776494D01*
X151843528Y-106776494D01*
X151727544Y-106753424D01*
X151643468Y-106736700D01*
X151643467Y-106736700D01*
X150561957Y-106736700D01*
X150479736Y-106717934D01*
X150417863Y-106670273D01*
X150395689Y-106644311D01*
X150198140Y-106475588D01*
X150198138Y-106475586D01*
X150198136Y-106475585D01*
X150198131Y-106475582D01*
X149976636Y-106339850D01*
X149976624Y-106339844D01*
X149736609Y-106240426D01*
X149483991Y-106179778D01*
X149483993Y-106179778D01*
X149225000Y-106159396D01*
X148966007Y-106179778D01*
X148713390Y-106240426D01*
X148473375Y-106339844D01*
X148473363Y-106339850D01*
X148251868Y-106475582D01*
X148251863Y-106475585D01*
X148054311Y-106644311D01*
X147885585Y-106841863D01*
X147885582Y-106841868D01*
X147749850Y-107063363D01*
X147749844Y-107063375D01*
X147650426Y-107303390D01*
X147589778Y-107556007D01*
X147569396Y-107815000D01*
X147589779Y-108074000D01*
X147590240Y-108076909D01*
X147590133Y-108078494D01*
X147590363Y-108081416D01*
X147589933Y-108081449D01*
X147584566Y-108161053D01*
X147542945Y-108234403D01*
X147473620Y-108282430D01*
X147390323Y-108295622D01*
X147309551Y-108271366D01*
X147247302Y-108214466D01*
X147241497Y-108205564D01*
X147214221Y-108161053D01*
X147104412Y-107981860D01*
X146935689Y-107784311D01*
X146872528Y-107730366D01*
X146822195Y-107662697D01*
X146806100Y-107586270D01*
X146806100Y-100583612D01*
X146766306Y-100383554D01*
X146688251Y-100195113D01*
X146688249Y-100195110D01*
X146688248Y-100195107D01*
X146674135Y-100173986D01*
X146645334Y-100130880D01*
X146645334Y-100130881D01*
X146574926Y-100025507D01*
X145440093Y-98890675D01*
X145270495Y-98777352D01*
X145270490Y-98777350D01*
X145082045Y-98699293D01*
X144881988Y-98659500D01*
X143398743Y-98659500D01*
X143316522Y-98640734D01*
X143250586Y-98588151D01*
X143216769Y-98522872D01*
X143192869Y-98440607D01*
X143111135Y-98302402D01*
X142997598Y-98188865D01*
X142997595Y-98188863D01*
X142997596Y-98188863D01*
X142859395Y-98107132D01*
X142859394Y-98107131D01*
X142859393Y-98107131D01*
X142705204Y-98062335D01*
X142669181Y-98059500D01*
X142669179Y-98059500D01*
X140540821Y-98059500D01*
X140540809Y-98059501D01*
X140504802Y-98062333D01*
X140350604Y-98107132D01*
X140212404Y-98188863D01*
X140098863Y-98302404D01*
X140017131Y-98440606D01*
X139993231Y-98522870D01*
X139952271Y-98596590D01*
X139883381Y-98645238D01*
X139811256Y-98659500D01*
X139471012Y-98659500D01*
X139270954Y-98699293D01*
X139095245Y-98772075D01*
X139022727Y-98786500D01*
X130322726Y-98786500D01*
X130240505Y-98767734D01*
X130188732Y-98730999D01*
X130162598Y-98704865D01*
X130162595Y-98704863D01*
X130162596Y-98704863D01*
X130024395Y-98623132D01*
X130024394Y-98623131D01*
X130024393Y-98623131D01*
X129870204Y-98578335D01*
X129834181Y-98575500D01*
X129834179Y-98575500D01*
X126705821Y-98575500D01*
X126705809Y-98575501D01*
X126669802Y-98578333D01*
X126515604Y-98623132D01*
X126377404Y-98704863D01*
X126263863Y-98818404D01*
X126182132Y-98956604D01*
X126137335Y-99110795D01*
X126134500Y-99146820D01*
X126134500Y-102275178D01*
X126134501Y-102275190D01*
X126137333Y-102311197D01*
X126137334Y-102311203D01*
X126137335Y-102311204D01*
X126170947Y-102426898D01*
X126182132Y-102465395D01*
X126202979Y-102500646D01*
X126263865Y-102603598D01*
X126377402Y-102717135D01*
X126377404Y-102717136D01*
X126377403Y-102717136D01*
X126466413Y-102769776D01*
X126515607Y-102798869D01*
X126669796Y-102843665D01*
X126705819Y-102846500D01*
X129834180Y-102846499D01*
X129845781Y-102845586D01*
X129870197Y-102843666D01*
X129870199Y-102843665D01*
X129870204Y-102843665D01*
X130024393Y-102798869D01*
X130162598Y-102717135D01*
X130276135Y-102603598D01*
X130357869Y-102465393D01*
X130402665Y-102311204D01*
X130405500Y-102275181D01*
X130405500Y-101047000D01*
X130424266Y-100964779D01*
X130476849Y-100898843D01*
X130552832Y-100862251D01*
X130595000Y-100857500D01*
X139547988Y-100857500D01*
X139748039Y-100817707D01*
X139748039Y-100817706D01*
X139748044Y-100817706D01*
X139758607Y-100813330D01*
X139841748Y-100799202D01*
X139922788Y-100822546D01*
X139985674Y-100878740D01*
X140013103Y-100935531D01*
X140017130Y-100949392D01*
X140074855Y-101047000D01*
X140098865Y-101087598D01*
X140212402Y-101201135D01*
X140212404Y-101201136D01*
X140212403Y-101201136D01*
X140301413Y-101253776D01*
X140350607Y-101282869D01*
X140504796Y-101327665D01*
X140540819Y-101330500D01*
X142669180Y-101330499D01*
X142680781Y-101329586D01*
X142705197Y-101327666D01*
X142705199Y-101327665D01*
X142705204Y-101327665D01*
X142859393Y-101282869D01*
X142997598Y-101201135D01*
X143111135Y-101087598D01*
X143192869Y-100949393D01*
X143216769Y-100867130D01*
X143257729Y-100793410D01*
X143326619Y-100744762D01*
X143398744Y-100730500D01*
X144272588Y-100730500D01*
X144354809Y-100749266D01*
X144406585Y-100786003D01*
X144679597Y-101059015D01*
X144724466Y-101130424D01*
X144735100Y-101193012D01*
X144735100Y-107576704D01*
X144716334Y-107658925D01*
X144668672Y-107720799D01*
X144594309Y-107784312D01*
X144594308Y-107784312D01*
X144425590Y-107981857D01*
X144425582Y-107981868D01*
X144289850Y-108203363D01*
X144289844Y-108203375D01*
X144190426Y-108443390D01*
X144129778Y-108696007D01*
X144109396Y-108955000D01*
X144129778Y-109213992D01*
X144190426Y-109466609D01*
X144289844Y-109706624D01*
X144289850Y-109706636D01*
X144425582Y-109928131D01*
X144425588Y-109928140D01*
X144425590Y-109928142D01*
X144581882Y-110111137D01*
X144621010Y-110185846D01*
X144623848Y-110270133D01*
X144589834Y-110347305D01*
X144525705Y-110402077D01*
X144444162Y-110423600D01*
X144365266Y-110409282D01*
X144338058Y-110398012D01*
X144126610Y-110310427D01*
X144059924Y-110294417D01*
X143873991Y-110249778D01*
X143873993Y-110249778D01*
X143615000Y-110229396D01*
X143356007Y-110249778D01*
X143103390Y-110310426D01*
X142863375Y-110409844D01*
X142863363Y-110409850D01*
X142641868Y-110545582D01*
X142641863Y-110545585D01*
X142444305Y-110714316D01*
X142427265Y-110734269D01*
X142359597Y-110784603D01*
X142283167Y-110800700D01*
X142188612Y-110800700D01*
X142106391Y-110781934D01*
X142054615Y-110745197D01*
X138455093Y-107145675D01*
X138285495Y-107032352D01*
X138285490Y-107032350D01*
X138097046Y-106954294D01*
X138097048Y-106954294D01*
X138031528Y-106941262D01*
X138000102Y-106935011D01*
X137896988Y-106914500D01*
X137896987Y-106914500D01*
X137342783Y-106914500D01*
X137260562Y-106895734D01*
X137226390Y-106874542D01*
X137170685Y-106831185D01*
X137058835Y-106744129D01*
X136980683Y-106701835D01*
X136849613Y-106630903D01*
X136624612Y-106553659D01*
X136624606Y-106553657D01*
X136624602Y-106553656D01*
X136624598Y-106553655D01*
X136624593Y-106553654D01*
X136389954Y-106514500D01*
X136389949Y-106514500D01*
X136152051Y-106514500D01*
X136152046Y-106514500D01*
X135917406Y-106553654D01*
X135917387Y-106553659D01*
X135692386Y-106630903D01*
X135483166Y-106744128D01*
X135315610Y-106874542D01*
X135239200Y-106910234D01*
X135199217Y-106914500D01*
X135153012Y-106914500D01*
X134952954Y-106954293D01*
X134764509Y-107032350D01*
X134764504Y-107032352D01*
X134594906Y-107145675D01*
X133180675Y-108559906D01*
X133067352Y-108729504D01*
X133067350Y-108729509D01*
X132989293Y-108917954D01*
X132949500Y-109118012D01*
X132949500Y-113369988D01*
X132930734Y-113452209D01*
X132878151Y-113518145D01*
X132802168Y-113554737D01*
X132717832Y-113554737D01*
X132641849Y-113518145D01*
X132626003Y-113503985D01*
X131093693Y-111971675D01*
X130924095Y-111858352D01*
X130924090Y-111858350D01*
X130735646Y-111780294D01*
X130735648Y-111780294D01*
X130637169Y-111760706D01*
X130558028Y-111744963D01*
X130481049Y-111710517D01*
X130426638Y-111646082D01*
X130405574Y-111564420D01*
X130405499Y-111559105D01*
X130405499Y-111211821D01*
X130405498Y-111211809D01*
X130402666Y-111175802D01*
X130402665Y-111175799D01*
X130402665Y-111175796D01*
X130357869Y-111021607D01*
X130276135Y-110883402D01*
X130162598Y-110769865D01*
X130162595Y-110769863D01*
X130162596Y-110769863D01*
X130024395Y-110688132D01*
X130024394Y-110688131D01*
X130024393Y-110688131D01*
X129870204Y-110643335D01*
X129834181Y-110640500D01*
X129834179Y-110640500D01*
X126705821Y-110640500D01*
X126705809Y-110640501D01*
X126669802Y-110643333D01*
X126515604Y-110688132D01*
X126377404Y-110769863D01*
X126263863Y-110883404D01*
X126182132Y-111021604D01*
X126137335Y-111175795D01*
X126134500Y-111211820D01*
X126134500Y-114340178D01*
X122555000Y-114340178D01*
X122555000Y-105711001D01*
X126511082Y-105711001D01*
X126530728Y-105973152D01*
X126530728Y-105973157D01*
X126589226Y-106229450D01*
X126685269Y-106474164D01*
X126816715Y-106701835D01*
X126864908Y-106762267D01*
X127592342Y-106034833D01*
X127605359Y-106066258D01*
X127687437Y-106189097D01*
X127791903Y-106293563D01*
X127914742Y-106375641D01*
X127946164Y-106388656D01*
X127218113Y-107116707D01*
X127390540Y-107234267D01*
X127390545Y-107234270D01*
X127627395Y-107348330D01*
X127878610Y-107425819D01*
X128138549Y-107464999D01*
X128138560Y-107465000D01*
X128401440Y-107465000D01*
X128401450Y-107464999D01*
X128661389Y-107425819D01*
X128912604Y-107348330D01*
X129149454Y-107234270D01*
X129149459Y-107234267D01*
X129321885Y-107116708D01*
X128593834Y-106388657D01*
X128625258Y-106375641D01*
X128748097Y-106293563D01*
X128852563Y-106189097D01*
X128934641Y-106066258D01*
X128947657Y-106034834D01*
X129675089Y-106762266D01*
X129723284Y-106701835D01*
X129854730Y-106474164D01*
X129950773Y-106229450D01*
X130009271Y-105973157D01*
X130009271Y-105973152D01*
X130028918Y-105711001D01*
X130028918Y-105710998D01*
X130009271Y-105448847D01*
X130009271Y-105448842D01*
X129950773Y-105192549D01*
X129854730Y-104947835D01*
X129723285Y-104720166D01*
X129723284Y-104720164D01*
X129675090Y-104659731D01*
X128947656Y-105387164D01*
X128934641Y-105355742D01*
X128852563Y-105232903D01*
X128748097Y-105128437D01*
X128625258Y-105046359D01*
X128593834Y-105033342D01*
X129321886Y-104305290D01*
X129149464Y-104187735D01*
X129149450Y-104187727D01*
X128912610Y-104073670D01*
X128661389Y-103996180D01*
X128401450Y-103957000D01*
X128138549Y-103957000D01*
X127878610Y-103996180D01*
X127627389Y-104073670D01*
X127390544Y-104187730D01*
X127390537Y-104187734D01*
X127218112Y-104305290D01*
X127946165Y-105033342D01*
X127914742Y-105046359D01*
X127791903Y-105128437D01*
X127687437Y-105232903D01*
X127605359Y-105355742D01*
X127592342Y-105387165D01*
X126864908Y-104659731D01*
X126816714Y-104720165D01*
X126816713Y-104720167D01*
X126685269Y-104947835D01*
X126589226Y-105192549D01*
X126530728Y-105448842D01*
X126530728Y-105448847D01*
X126511082Y-105710998D01*
X126511082Y-105711001D01*
X122555000Y-105711001D01*
X122555000Y-96746294D01*
X122573766Y-96664073D01*
X122626349Y-96598137D01*
X122702332Y-96561545D01*
X122786668Y-96561545D01*
X122862651Y-96598137D01*
X122867184Y-96601868D01*
X122867630Y-96602247D01*
X122867638Y-96602254D01*
X123087941Y-96769724D01*
X123164210Y-96827702D01*
X123164212Y-96827703D01*
X123483413Y-97019761D01*
X123483417Y-97019763D01*
X123483419Y-97019764D01*
X123821523Y-97176187D01*
X124174556Y-97295138D01*
X124538382Y-97375222D01*
X124908733Y-97415500D01*
X124908736Y-97415500D01*
X125281264Y-97415500D01*
X125281267Y-97415500D01*
X125651618Y-97375222D01*
X126015444Y-97295138D01*
X126368477Y-97176187D01*
X126706581Y-97019764D01*
X127025790Y-96827702D01*
X127322362Y-96602254D01*
X127592821Y-96346062D01*
X127771937Y-96135190D01*
X147564466Y-96135190D01*
X147611514Y-96290288D01*
X147611519Y-96290300D01*
X147709392Y-96473404D01*
X147709395Y-96473410D01*
X147841100Y-96633894D01*
X147841105Y-96633899D01*
X148001589Y-96765604D01*
X148001595Y-96765607D01*
X148184699Y-96863480D01*
X148184711Y-96863485D01*
X148339809Y-96910533D01*
X148339810Y-96910532D01*
X148339810Y-96200496D01*
X148344394Y-96205080D01*
X148435606Y-96257741D01*
X148537339Y-96285000D01*
X148642661Y-96285000D01*
X148744394Y-96257741D01*
X148835606Y-96205080D01*
X148840190Y-96200496D01*
X148840190Y-96910533D01*
X148995288Y-96863485D01*
X148995300Y-96863480D01*
X149178404Y-96765607D01*
X149178410Y-96765604D01*
X149338894Y-96633899D01*
X149338899Y-96633894D01*
X149470604Y-96473410D01*
X149470607Y-96473404D01*
X149568480Y-96290300D01*
X149568485Y-96290288D01*
X149615533Y-96135190D01*
X148905496Y-96135190D01*
X148910080Y-96130606D01*
X148962741Y-96039394D01*
X148990000Y-95937661D01*
X148990000Y-95832339D01*
X148962741Y-95730606D01*
X148910080Y-95639394D01*
X148905496Y-95634810D01*
X149615533Y-95634810D01*
X149615533Y-95634809D01*
X149568485Y-95479711D01*
X149568480Y-95479699D01*
X149470607Y-95296595D01*
X149470604Y-95296589D01*
X149338899Y-95136105D01*
X149338894Y-95136100D01*
X149178410Y-95004395D01*
X149178404Y-95004392D01*
X148995302Y-94906520D01*
X148840190Y-94859466D01*
X148840190Y-95569504D01*
X148835606Y-95564920D01*
X148744394Y-95512259D01*
X148642661Y-95485000D01*
X148537339Y-95485000D01*
X148435606Y-95512259D01*
X148344394Y-95564920D01*
X148339810Y-95569504D01*
X148339810Y-94859466D01*
X148184697Y-94906520D01*
X148001595Y-95004392D01*
X148001589Y-95004395D01*
X147841105Y-95136100D01*
X147841100Y-95136105D01*
X147709395Y-95296589D01*
X147709392Y-95296595D01*
X147611519Y-95479699D01*
X147611514Y-95479711D01*
X147564466Y-95634809D01*
X147564467Y-95634810D01*
X148274504Y-95634810D01*
X148269920Y-95639394D01*
X148217259Y-95730606D01*
X148190000Y-95832339D01*
X148190000Y-95937661D01*
X148217259Y-96039394D01*
X148269920Y-96130606D01*
X148274504Y-96135190D01*
X147564466Y-96135190D01*
X127771937Y-96135190D01*
X127833995Y-96062130D01*
X128043057Y-95753787D01*
X128217555Y-95424648D01*
X128355444Y-95078572D01*
X128455108Y-94719616D01*
X128459144Y-94695000D01*
X140346210Y-94695000D01*
X140365333Y-94913583D01*
X140365334Y-94913588D01*
X140422122Y-95125527D01*
X140422124Y-95125535D01*
X140514853Y-95324390D01*
X140558890Y-95387284D01*
X141121980Y-94824195D01*
X141139075Y-94887993D01*
X141204901Y-95002007D01*
X141297993Y-95095099D01*
X141412007Y-95160925D01*
X141475802Y-95178019D01*
X140912714Y-95741108D01*
X140975606Y-95785144D01*
X140975613Y-95785148D01*
X141174464Y-95877875D01*
X141174472Y-95877877D01*
X141386411Y-95934665D01*
X141386416Y-95934666D01*
X141605000Y-95953789D01*
X141823583Y-95934666D01*
X141823588Y-95934665D01*
X142035527Y-95877877D01*
X142035535Y-95877875D01*
X142234388Y-95785147D01*
X142234393Y-95785144D01*
X142297284Y-95741108D01*
X141734197Y-95178019D01*
X141797993Y-95160925D01*
X141912007Y-95095099D01*
X142005099Y-95002007D01*
X142070925Y-94887993D01*
X142088019Y-94824197D01*
X142651108Y-95387284D01*
X142695144Y-95324393D01*
X142695147Y-95324388D01*
X142787875Y-95125535D01*
X142787877Y-95125527D01*
X142844665Y-94913588D01*
X142844666Y-94913583D01*
X142863789Y-94695000D01*
X142844666Y-94476416D01*
X142844665Y-94476411D01*
X142787877Y-94264472D01*
X142787875Y-94264464D01*
X142695148Y-94065613D01*
X142695144Y-94065606D01*
X142651108Y-94002714D01*
X142088019Y-94565802D01*
X142070925Y-94502007D01*
X142005099Y-94387993D01*
X141912007Y-94294901D01*
X141797993Y-94229075D01*
X141734195Y-94211980D01*
X142297284Y-93648890D01*
X142234390Y-93604853D01*
X142035535Y-93512124D01*
X142035527Y-93512122D01*
X141823588Y-93455334D01*
X141823583Y-93455333D01*
X141605000Y-93436210D01*
X141386416Y-93455333D01*
X141386411Y-93455334D01*
X141174472Y-93512122D01*
X141174469Y-93512123D01*
X140975609Y-93604853D01*
X140912715Y-93648891D01*
X141475804Y-94211980D01*
X141412007Y-94229075D01*
X141297993Y-94294901D01*
X141204901Y-94387993D01*
X141139075Y-94502007D01*
X141121980Y-94565804D01*
X140558891Y-94002715D01*
X140514853Y-94065609D01*
X140422123Y-94264469D01*
X140422122Y-94264472D01*
X140365334Y-94476411D01*
X140365333Y-94476416D01*
X140346210Y-94695000D01*
X128459144Y-94695000D01*
X128515377Y-94351988D01*
X128535546Y-93980000D01*
X128515377Y-93608012D01*
X128455108Y-93240384D01*
X128355444Y-92881428D01*
X128217555Y-92535352D01*
X128043057Y-92206213D01*
X127833995Y-91897870D01*
X127698723Y-91738615D01*
X127659800Y-91663804D01*
X127657190Y-91579509D01*
X127691412Y-91502429D01*
X127755690Y-91447832D01*
X127837290Y-91426530D01*
X127842536Y-91426442D01*
X166881390Y-91326342D01*
X166963652Y-91344896D01*
G37*
%TD.AperFunction*%
%TD*%
M02*
