%TF.GenerationSoftware,KiCad,Pcbnew,8.0.0*%
%TF.CreationDate,2024-05-31T10:16:06+08:00*%
%TF.ProjectId,ecc83-pp,65636338-332d-4707-902e-6b696361645f,rev?*%
%TF.SameCoordinates,Original*%
%TF.FileFunction,Legend,Bot*%
%TF.FilePolarity,Positive*%
%FSLAX46Y46*%
G04 Gerber Fmt 4.6, Leading zero omitted, Abs format (unit mm)*
G04 Created by KiCad (PCBNEW 8.0.0) date 2024-05-31 10:16:06*
%MOMM*%
%LPD*%
G01*
G04 APERTURE LIST*
%ADD10R,2.000000X2.000000*%
%ADD11C,2.000000*%
%ADD12C,1.600000*%
%ADD13C,5.600000*%
%ADD14O,1.600000X1.600000*%
%ADD15R,3.000000X3.000000*%
%ADD16C,3.000000*%
%ADD17C,2.030000*%
G04 APERTURE END LIST*
%LPC*%
D10*
%TO.C,C1*%
X141605000Y-99695000D03*
D11*
X141605000Y-94695000D03*
%TD*%
D12*
%TO.C,C2*%
X137160000Y-125095000D03*
X137160000Y-120095000D03*
%TD*%
D13*
%TO.C,P5*%
X125095000Y-93980000D03*
%TD*%
%TO.C,P6*%
X169545000Y-93980000D03*
%TD*%
%TO.C,P7*%
X169545000Y-132715000D03*
%TD*%
D12*
%TO.C,R1*%
X136271000Y-107950000D03*
D14*
X136271000Y-115570000D03*
%TD*%
D12*
%TO.C,R2*%
X156210000Y-95885000D03*
D14*
X148590000Y-95885000D03*
%TD*%
D12*
%TO.C,R4*%
X164465000Y-117475000D03*
D14*
X164465000Y-125095000D03*
%TD*%
D15*
%TO.C,P2*%
X128270000Y-112776000D03*
D16*
X128270000Y-117776000D03*
%TD*%
D15*
%TO.C,P3*%
X128270000Y-100711000D03*
D16*
X128270000Y-105711000D03*
%TD*%
D15*
%TO.C,P4*%
X145542000Y-131191000D03*
D16*
X150542000Y-131191000D03*
%TD*%
D12*
%TO.C,R3*%
X133985000Y-125095000D03*
D14*
X126365000Y-125095000D03*
%TD*%
D17*
%TO.C,U1*%
X152675000Y-118465000D03*
X154825000Y-115535000D03*
X154825000Y-111885000D03*
X152675000Y-108955000D03*
X149225000Y-107815000D03*
X145765000Y-108955000D03*
X143615000Y-111885000D03*
X143615000Y-115495000D03*
X145765000Y-118465000D03*
%TD*%
D15*
%TO.C,P1*%
X166370000Y-105410000D03*
D16*
X166370000Y-100410000D03*
%TD*%
D13*
%TO.C,P8*%
X125095000Y-132715000D03*
%TD*%
%LPD*%
M02*
