
%include pcb_display_options.h
%include project/board_project_settings.h

%{
#include <pcb_display_options.h>
#include <project/board_project_settings.h>
%}


// 包装枚举类型
// %{
// enum HIGH_CONTRAST_MODE {
//     NORMAL = 0,
//     DIMMED,
//     HIDDEN
// };
// %}


